<<<<<<< HEAD
<?xml version="1.0" encoding="utf-8"?>
<!-- Generator: Adobe Illustrator 17.0.0, SVG Export Plug-In . SVG Version: 6.00 Build 0)  -->
<!DOCTYPE svg PUBLIC "-//W3C//DTD SVG 1.1//EN" "http://www.w3.org/Graphics/SVG/1.1/DTD/svg11.dtd">
<svg version="1.1" id="Layer_1" xmlns="http://www.w3.org/2000/svg" xmlns:xlink="http://www.w3.org/1999/xlink" x="0px" y="0px"
	 width="30.584px" height="20.948px" viewBox="0 0 30.584 20.948" enable-background="new 0 0 30.584 20.948" xml:space="preserve">
<g>
	
		<rect x="1.292" y="1.292" fill="none" stroke="#FFFFFF" stroke-width="2.5841" stroke-linecap="round" stroke-linejoin="round" stroke-miterlimit="10" width="28" height="18.364"/>
	
		<line fill="none" stroke="#FFFFFF" stroke-width="2.5841" stroke-linecap="round" stroke-linejoin="round" stroke-miterlimit="10" x1="15.292" y1="10.474" x2="29.292" y2="1.292"/>
	
		<line fill="none" stroke="#FFFFFF" stroke-width="2.5841" stroke-linecap="round" stroke-linejoin="round" stroke-miterlimit="10" x1="15.292" y1="10.474" x2="1.292" y2="1.292"/>
</g>
</svg>
=======
<?xml version="1.0" encoding="utf-8"?>
<!-- Generator: Adobe Illustrator 17.0.0, SVG Export Plug-In . SVG Version: 6.00 Build 0)  -->
<!DOCTYPE svg PUBLIC "-//W3C//DTD SVG 1.1//EN" "http://www.w3.org/Graphics/SVG/1.1/DTD/svg11.dtd">
<svg version="1.1" id="Layer_1" xmlns="http://www.w3.org/2000/svg" xmlns:xlink="http://www.w3.org/1999/xlink" x="0px" y="0px"
	 width="30.584px" height="20.948px" viewBox="0 0 30.584 20.948" enable-background="new 0 0 30.584 20.948" xml:space="preserve">
<g>
	
		<rect x="1.292" y="1.292" fill="none" stroke="#FFFFFF" stroke-width="2.5841" stroke-linecap="round" stroke-linejoin="round" stroke-miterlimit="10" width="28" height="18.364"/>
	
		<line fill="none" stroke="#FFFFFF" stroke-width="2.5841" stroke-linecap="round" stroke-linejoin="round" stroke-miterlimit="10" x1="15.292" y1="10.474" x2="29.292" y2="1.292"/>
	
		<line fill="none" stroke="#FFFFFF" stroke-width="2.5841" stroke-linecap="round" stroke-linejoin="round" stroke-miterlimit="10" x1="15.292" y1="10.474" x2="1.292" y2="1.292"/>
</g>
</svg>
>>>>>>> branch 'master' of https://gitlab.com/elhayanihassan1/fr.afcepf.ai107.nomads.projet3.groupe3
