siren,nic,siret,statutDiffusionEtablissement,dateCreationEtablissement,trancheEffectifsEtablissement,anneeEffectifsEtablissement,activitePrincipaleRegistreMetiersEtablissement,dateDernierTraitementEtablissement,etablissementSiege,nombrePeriodesEtablissement,complementAdresseEtablissement,numeroVoieEtablissement,indiceRepetitionEtablissement,typeVoieEtablissement,libelleVoieEtablissement,codePostalEtablissement,libelleCommuneEtablissement,libelleCommuneEtrangerEtablissement,distributionSpecialeEtablissement,codeCommuneEtablissement,codeCedexEtablissement,libelleCedexEtablissement,codePaysEtrangerEtablissement,libellePaysEtrangerEtablissement,complementAdresse2Etablissement,numeroVoie2Etablissement,indiceRepetition2Etablissement,typeVoie2Etablissement,libelleVoie2Etablissement,codePostal2Etablissement,libelleCommune2Etablissement,libelleCommuneEtranger2Etablissement,distributionSpeciale2Etablissement,codeCommune2Etablissement,codeCedex2Etablissement,libelleCedex2Etablissement,codePaysEtranger2Etablissement,libellePaysEtranger2Etablissement,dateDebut,etatAdministratifEtablissement,enseigne1Etablissement,enseigne2Etablissement,enseigne3Etablissement,denominationUsuelleEtablissement,activitePrincipaleEtablissement,nomenclatureActivitePrincipaleEtablissement,caractereEmployeurEtablissement
000325175,00016,00032517500016,O,2000-09-26,,,3212ZZ,2015-03-18T00:58:59,false,3,,,,,MANIHI COTE MONTAGNE TUAMOTU,98770,MANIHI,,,98727,,,,,,,,,,,,,,,,,,,2009-05-27,F,,,,,32.12Z,NAFRev2,N
000325175,00024,00032517500024,O,2008-05-20,,,,2011-12-12T09:40:04,false,2,,1,,PL,LEONCE DE SEYNES,84140,AVIGNON,,,84007,,,,,,,,,,,,,,,,,,,2011-10-21,F,TAHITI PERLES CREATIONS,,,,47.89Z,NAFRev2,N
000325175,00032,00032517500032,O,2009-05-27,,,,2014-07-08T00:10:21,false,2,ECONOMIS,6,,AV,FRANCOIS MAURIAC,84000,AVIGNON,,,84007,,,,,,,,,,,,,,,,,,,2011-10-21,F,TAHITI PERLES CREATIONS,,,,32.12Z,NAFRev2,N
000325175,00040,00032517500040,O,2011-10-21,,,3212ZZ,2015-03-18T00:58:59,false,2,,170,,AV,DU COL DE L ANGE,13420,GEMENOS,,,13042,,,,,,,,,,,,,,,,,,,2014-01-07,F,TAHITI PERLES CREATION,,,,32.12Z,NAFRev2,N
000325175,00057,00032517500057,O,2014-01-07,,,,2018-07-10T14:17:15,false,2,,61,,RUE,MARX DORMOY,13004,MARSEILLE 4,,,13204,,,,,,,,,,,,,,,,,,,2018-02-07,F,TAHITI PERLES CREATION,,,,32.12Z,NAFRev2,N
000325175,00065,00032517500065,O,2018-02-07,,,,2019-12-13T13:21:28,true,1,,51,,RUE,MARX DORMOY,13004,MARSEILLE 4,,,13204,,,,,,,,,,,,,,,,,,,2018-02-07,A,,,,,32.12Z,NAFRev2,N
001807254,00014,00180725400014,O,1972-05-01,,,,2009-10-02T11:01:38,false,3,,15,,RUE,D INGLEMUR,54200,TOUL,,,54528,,,,,,,,,,,,,,,,,,,2008-01-01,F,,,,,95.24Z,NAFRev2,N
001807254,00022,00180725400022,O,2009-10-01,,,,2019-11-14T14:00:13,true,2,,31,,RUE,D ALEMBERT,02100,SAINT-QUENTIN,,,02691,,,,,,,,,,,,,,,,,,,2014-12-31,F,,,,,85.59A,NAFRev2,N
005410220,00015,00541022000015,O,,NN,,,2019-11-14T14:01:01,true,1,,,,RUE,DE HOUDENT,80210,TOURS-EN-VIMEU,,,80765,,,,,,,,,,,,,,,,,,,1988-03-31,F,,,,,22.02,NAP,N
005410345,00010,00541034500010,O,,,,,,true,1,,,,RTE,DE DOULLENS,80100,ABBEVILLE,,,80001,,,,,,,,,,,,,,,,,,,1984-12-25,F,,,,,79.06,NAP,N
005410394,00018,00541039400018,O,,NN,,,,true,1,,,,CHE,PETIT,80120,ARGOULES,,,80025,,,,,,,,,,,,,,,,,,,1987-12-01,F,,,,,64.42,NAP,N
005410428,00014,00541042800014,O,1954-01-01,NN,,,,true,1,,68,,CHS,MARCADE,80100,ABBEVILLE,,,80001,,,,,,,,,,,,,,,,,,,1989-06-11,F,,,,,70.2C,NAF1993,N
005410436,00017,00541043600017,O,,,,,,true,1,,,,CHS,D HOCQUET,80100,ABBEVILLE,,,80001,,,,,,,,,,,,,,,,,,,1984-12-25,F,,,,,57.11,NAP,N
005410485,00014,00541048500014,O,,,,,,true,1,,177,,RUE,GRANDE,80220,GAMACHES,,,80373,,,,,,,,,,,,,,,,,,,1985-12-25,F,,,,,64.42,NAP,N
005410493,00018,00541049300018,O,,,,,2019-11-14T14:01:01,true,1,,,,HAM,DE HAMICOURT,80210,TOURS-EN-VIMEU,,,80765,,,,,,,,,,,,,,,,,,,,F,,,,,86.06,NAP,N
005410501,00018,00541050100018,O,1954-01-01,NN,,,,true,1,,,,RUE,FORT MARDI,80150,VIRONCHAUX,,,80808,,,,,,,,,,,,,,,,,,,2001-12-31,F,,,,,55.4B,NAF1993,N
005410519,00010,00541051900010,O,,NN,,,,true,1,,10,,RUE,PASTEUR,80550,LE CROTOY,,,80228,,,,,,,,,,,,,,,,,,,,F,,,,,62.11,NAP,N
005410527,00013,00541052700013,O,,,,,,true,1,,84,,RUE,PASTEUR,80100,ABBEVILLE,,,80001,,,,,,,,,,,,,,,,,,,1997-07-01,F,,,,,70.2C,NAF1993,N
005410543,00010,00541054300010,O,,,,,,true,1,,,,RTE,NATIONALE,80860,NOUVION,,,80598,,,,,,,,,,,,,,,,,,,,F,,,,,67.05,NAP,N
005410642,00010,00541064200010,O,,NN,,,,true,1,,1,,RUE,DE SAINT VALERY,80220,GAMACHES,,,80373,,,,,,,,,,,,,,,,,,,1991-12-31,F,,,,,64.45,NAP,N
005410667,00017,00541066700017,O,,NN,,,2019-11-14T14:01:01,true,1,,,,,,80132,MAREUIL-CAUBERT,,,80512,,,,,,,,,,,,,,,,,,,1996-10-30,F,,,,,55.4B,NAF1993,O
005410675,00010,00541067500010,O,,,,,,true,1,,,,,,80270,ALLERY,,,80019,,,,,,,,,,,,,,,,,,,1984-12-25,F,,,,,62.43,NAP,N
005410717,00010,00541071700010,O,,NN,,,2019-11-14T14:01:01,true,1,,27,,RUE,SAINT JEAN,80135,SAINT-RIQUIER,,,80716,,,,,,,,,,,,,,,,,,,1990-10-31,F,,,,,65.06,NAP,N
005410733,00017,00541073300017,O,,NN,,,,true,1,,17,,,PETITE RUE NOTRE DAME,80100,ABBEVILLE,,,80001,,,,,,,,,,,,,,,,,,,,F,,,,,57.03,NAP,N
005410741,00010,00541074100010,O,,,,,,true,1,,,,AV,DE LA GARE,80120,QUEND,,,80649,,,,,,,,,,,,,,,,,,,1985-12-25,F,,,,,64.42,NAP,N
005410758,00014,00541075800014,O,,,,,,true,1,,,,CHS,MARCADE,80100,ABBEVILLE,,,80001,,,,,,,,,,,,,,,,,,,1984-12-25,F,,,,,67.05,NAP,N
005410816,00010,00541081600010,O,,NN,,,,true,1,,3,,RUE,DE L ARQUET,80370,HIERMONT,,,80440,,,,,,,,,,,,,,,,,,,,F,,,,,38.40,NAP,N
005410857,00014,00541085700014,O,,NN,,,,true,1,,37,,RUE,PIERRE SAUVAGE,80100,ABBEVILLE,,,80001,,,,,,,,,,,,,,,,,,,,F,,,,,62.11,NAP,N
005410873,00029,00541087300029,O,1980-01-01,NN,,,,true,1,,9,,RUE,CHARLES DE GAULLE,80220,GAMACHES,,,80373,,,,,,,,,,,,,,,,,,,1999-12-31,F,,,,,70.2C,NAF1993,N
005410899,00024,00541089900024,O,2000-01-01,NN,,,2006-11-25T09:04:27,true,1,,21,,BD,VOLTAIRE,80100,ABBEVILLE,,,80001,,,,,,,,,,,,,,,,,,,2001-03-22,F,,,,,74.1J,NAF1993,N
005410949,00019,00541094900019,O,,NN,,,,true,1,,35,,PL,MAX LEJEUNE,80100,ABBEVILLE,,,80001,,,,,,,,,,,,,,,,,,,,F,,,,,64.11,NAP,N
005410980,00014,00541098000014,O,,,,,,true,1,,,,,,80132,MIANNAY,,,80546,,,,,,,,,,,,,,,,,,,1987-06-30,F,,,,,67.07,NAP,N
005411053,00019,00541105300019,O,,,,,,true,1,,,,RUE,D ABBEVILLE,80870,MOYENNEVILLE,,,80578,,,,,,,,,,,,,,,,,,,1991-03-31,F,,,,,65.03,NAP,N
005411236,00010,00541123600010,O,,,,,,true,1,,,,RUE,DU MOULIN,80220,MAISNIERES,,,80500,,,,,,,,,,,,,,,,,,,,F,,,,,55.40,NAP,N
005411343,00014,00541134300014,O,,,,,2019-11-14T14:01:00,true,1,,,,RUE,DU GENERAL LECLERC,80150,CRECY-EN-PONTHIEU,,,80222,,,,,,,,,,,,,,,,,,,1992-10-31,F,,,,,50.1Z,NAF1993,N
005411434,00011,00541143400011,O,,,,,,true,1,,,,,,80120,FAVIERES,,,80303,,,,,,,,,,,,,,,,,,,1987-09-30,F,,,,,65.02,NAP,N
005411483,00018,00541148300018,O,,,,,2019-11-14T14:01:00,true,1,,,,,,80150,CRECY-EN-PONTHIEU,,,80222,,,,,,,,,,,,,,,,,,,1984-12-25,F,,,,,62.41,NAP,N
005411582,00017,00541158200017,O,1954-01-01,NN,,,2012-07-28T11:19:32,true,5,,47,,CHS,DU BOIS,80100,ABBEVILLE,,,80001,,,,,,,,,,,,,,,,,,,2010-12-25,F,,,,,68.20B,NAFRev2,N
005411699,00019,00541169900019,O,,NN,,,2019-11-14T14:01:00,true,1,,,,,,80150,CRECY-EN-PONTHIEU,,,80222,,,,,,,,,,,,,,,,,,,1999-01-10,F,,,,,57.03,NAP,N
005411806,00010,00541180600010,O,,,,,,true,1,,,,RUE,ALFRED FRANCOIS,80100,ABBEVILLE,,,80001,,,,,,,,,,,,,,,,,,,1984-12-25,F,,,,,62.11,NAP,N
005411954,00018,00541195400018,O,,,,,,true,1,,,,RUE,JULES VERNE,80550,LE CROTOY,,,80228,,,,,,,,,,,,,,,,,,,1984-12-25,F,,,,,38.50,NAP,N
005411962,00011,00541196200011,O,,,,,,true,1,,,,,,80150,DOMVAST,,,80250,,,,,,,,,,,,,,,,,,,1990-12-31,F,,,,,67.05,NAP,N
005411996,00019,00541199600019,O,,NN,,,,true,1,,10,,AV,DE LA GARE,80100,ABBEVILLE,,,80001,,,,,,,,,,,,,,,,,,,,F,,,,,67.04,NAP,N
005420013,00012,00542001300012,O,,NN,,,,true,1,,264,,CHS,D HOCQUET,80100,ABBEVILLE,,,80001,,,,,,,,,,,,,,,,,,,,F,,,,,62.21,NAP,N
005420021,00015,00542002100015,O,1900-01-01,NN,,,2010-04-18T03:00:20,false,6,,17,,RUE,DES LINGERS,80100,ABBEVILLE,,,80001,,,,,,,,,,,,,,,,,,,2008-09-05,F,,,,,46.69B,NAFRev2,O
005420021,00023,00542002100023,O,1995-02-14,NN,,,2011-04-23T04:00:22,false,6,,,,RUE,TUROLD,76630,ENVERMEU,,,76235,,,,,,,,,,,,,,,,,,,2009-12-31,F,,,,,46.69B,NAFRev2,O
005420021,00031,00542002100031,O,1996-03-15,NN,,,2019-11-14T14:01:00,false,5,,134,,RUE,HENRI BARBUSSE,80130,FRIVILLE-ESCARBOTIN,,,80368,,,,,,,,,,,,,,,,,,,2009-12-31,F,,,,,46.69B,NAFRev2,O
005420021,00049,00542002100049,O,2008-09-05,NN,,,2011-04-23T04:00:22,false,2,ZAC DES DEUX VALLEES,52,,RUE,VENTOSE,80100,ABBEVILLE,,,80001,,,,,,,,,,,,,,,,,,,2009-12-23,F,,,,,46.69B,NAFRev2,O
005420021,00056,00542002100056,O,2009-12-23,NN,,,2011-07-19T16:18:33,true,1,,21,B,BD,DES PRES,80100,ABBEVILLE,,,80001,,,,,,,,,,,,,,,,,,,2009-12-23,A,,,,,46.69B,NAFRev2,O